<svg id="Group_143" data-name="Group 143" xmlns="http://www.w3.org/2000/svg" viewBox="0 0 17.143 9.241">
  <defs>
    <style>
      .cls-1 {
        fill: #c8b178;
      }
    </style>
  </defs>
  <path id="Path_170" data-name="Path 170" class="cls-1" d="M17.042,182.066A10.22,10.22,0,0,0,8.571,177.8,10.259,10.259,0,0,0,.1,182.066a.671.671,0,0,0,0,.706,10.222,10.222,0,0,0,8.471,4.269,10.259,10.259,0,0,0,8.471-4.266A.677.677,0,0,0,17.042,182.066ZM4.657,184.871A8.863,8.863,0,0,1,1.5,182.421a8.871,8.871,0,0,1,3.157-2.451,4.6,4.6,0,0,0,0,4.9Zm3.914.83a3.281,3.281,0,1,1,3.281-3.281A3.287,3.287,0,0,1,8.571,185.7Zm3.914-.83a4.6,4.6,0,0,0,0-4.9,8.862,8.862,0,0,1,3.157,2.451A8.878,8.878,0,0,1,12.485,184.871ZM9.7,181.764c.589.589-.161,1.376-.894,1.989a.363.363,0,0,1-.462,0c-.773-.646-1.487-1.4-.894-1.992a.774.774,0,0,1,1.125.06A.777.777,0,0,1,9.7,181.764Z" transform="translate(0 -177.8)"/>
</svg>
