<svg xmlns="http://www.w3.org/2000/svg" viewBox="0 0 15 7.5">
  <defs>
    <style>
      .cls-1 {
        fill: #fff;
      }
    </style>
  </defs>
  <g id="Group_112" data-name="Group 112" transform="translate(0 0)">
    <rect id="Rectangle_5" data-name="Rectangle 5" class="cls-1" width="15" height="1"/>
    <rect id="Rectangle_6" data-name="Rectangle 6" class="cls-1" width="10" height="1" transform="translate(0 3.25)"/>
    <rect id="Rectangle_7" data-name="Rectangle 7" class="cls-1" width="10" height="1" transform="translate(0 6.5)"/>
  </g>
</svg>
