<svg id="Group_140" data-name="Group 140" xmlns="http://www.w3.org/2000/svg" viewBox="0 0 17.143 16.04">
  <defs>
    <style>
      .cls-1 {
        fill: #fff;
      }
    </style>
  </defs>
  <path id="Path_179" data-name="Path 179" class="cls-1" d="M.973,5.612,8.558,1.426l7.585,4.186a.664.664,0,0,0,.9-.26.654.654,0,0,0,.055-.506.673.673,0,0,0-.319-.4L8.877.082A.665.665,0,0,0,8.558,0a.7.7,0,0,0-.323.082L.326,4.451A.665.665,0,0,0,.973,5.612Z" transform="translate(0.016)"/>
  <path id="Path_180" data-name="Path 180" class="cls-1" d="M165.1,125a1.1,1.1,0,1,0,1.1,1.1A1.1,1.1,0,0,0,165.1,125Z" transform="translate(-156.528 -119.306)"/>
  <path id="Path_181" data-name="Path 181" class="cls-1" d="M122.3,148.338h-4.3l2.546-2.546a.989.989,0,0,0,.292-.7v-2.455a.988.988,0,0,0-.989-.989h-2.993v-1.872a.374.374,0,0,0-.747,0v2.25a.375.375,0,0,0,.374.374h2.382v2.77l-2.086,3.348a.378.378,0,0,0,.319.574H122.3a.375.375,0,0,0,.374-.374A.383.383,0,0,0,122.3,148.338Z" transform="translate(-110.811 -133.05)"/>
</svg>
